## Interface: 100002
## Title: AdventureGuideBosses
## Author: Hindenburg, Updates by Kvalyr & Fabiocm
## Version: 2.0.0
## Notes: Orders bosses in the adventure guide according to LFR wings, and adds raid wing tags.

main.lua
